…
Use the `get_dataframe_*` functions, depending on the input you have.
For example, we will read a survey dataset on dataverse,
[nlsw88.dta](https://demo.dataverse.org/file.xhtml?persistentId=doi:10.70122/FK2/PPKHI1/ZYATZZ)
(`doi:10.70122/FK2/PPKHI1/ZYATZZ`), originally in Stata dta form.

With a file DOI

``` r
nlsw <- get_dataframe_by_doi("10.70122/FK2/PPKHI1/ZYATZZ", 
                             haven::read_dta, 
                             server = "demo.dataverse.org")
nlsw
```

    ## # A tibble: 2,246 x 17
    ##    idcode   age    race married never_married grade collgrad south    smsa c_city industry occupation    union  wage
    ##     <dbl> <dbl> <dbl+l> <dbl+l>         <dbl> <dbl> <dbl+lb> <dbl> <dbl+l>  <dbl> <dbl+lb>  <dbl+lbl> <dbl+lb> <dbl>
    ##  1      1    37 2 [bla… 0 [sin…             0    12 0 [not …     0 1 [SMS…      0  5 [Tra…  6 [Opera…  1 [uni… 11.7 
    ##  2      2    37 2 [bla… 0 [sin…             0    12 0 [not …     0 1 [SMS…      1  4 [Man…  5 [Craft…  1 [uni…  6.40
    ##  3      3    42 2 [bla… 0 [sin…             1    12 0 [not …     0 1 [SMS…      1  4 [Man…  3 [Sales] NA        5.02
    ##  4      4    43 1 [whi… 1 [mar…             0    17 1 [coll…     0 1 [SMS…      0 11 [Pro… 13 [Other]  1 [uni…  9.03
    ##  5      6    42 1 [whi… 1 [mar…             0    12 0 [not …     0 1 [SMS…      0  4 [Man…  6 [Opera…  0 [non…  8.08
    ##  6      7    39 1 [whi… 1 [mar…             0    12 0 [not …     0 1 [SMS…      0 11 [Pro…  3 [Sales]  0 [non…  4.63
    ##  7      9    37 1 [whi… 0 [sin…             0    12 0 [not …     0 1 [SMS…      1  5 [Tra…  2 [Manag…  1 [uni… 10.5 
    ##  8     12    40 1 [whi… 1 [mar…             0    18 1 [coll…     0 1 [SMS…      0 11 [Pro…  2 [Manag…  0 [non… 17.2 
    ##  9     13    40 1 [whi… 1 [mar…             0    14 0 [not …     0 1 [SMS…      0 11 [Pro…  3 [Sales]  0 [non… 13.1 
    ## 10     14    40 1 [whi… 1 [mar…             0    15 0 [not …     0 1 [SMS…      0 11 [Pro…  1 [Profe…  0 [non…  7.75
    ## # … with 2,236 more rows, and 3 more variables: hours <dbl>, ttl_exp <dbl>, tenure <dbl>
…
